A Austin
B Cleaveland
C [dead]
D Dallas
E Everett
F Frisco
G [dead]
H [dead]
I Indianapolis
J Johannesburg
K Kyoto
L London
M Madrid
N NewYork
O Omaha
P Paris
Q Queens
R Reno
S Seattle
T Toronto
U Udaipur
V Vienna
W WashingtonDC
X Xianyang
Y Yonkers
Z Zurich