...........
----------------------------------------------------------------------
Ran 11 tests in 0.002s

OK
Name               Stmts   Miss Branch BrPart  Cover   Missing
--------------------------------------------------------------
Diplomacy.py          58      1     42      3    96%   34->36, 62->65, 65, 84->83
TestDiplomacy.py      53      0      2      1    98%   110->exit
--------------------------------------------------------------
TOTAL                111      1     44      4    97%
